{
    "name": "ActionCode.Lights.Runtime",
    "references": [
        "Unity.RenderPipelines.Universal.Runtime"
    ],
    "includePlatforms": [],
    "excludePlatforms": [],
    "allowUnsafeCode": false,
    "overrideReferences": false,
    "precompiledReferences": [],
    "autoReferenced": true,
    "defineConstraints": [],
    "versionDefines": [],
    "noEngineReferences": false
}